MLB
…
swinging_strike[swinging_strike$description=='swinging_strike','swinging_strike'] <- TRUE
swinging_strike[swinging_strike$description=='swinging_strike_blocked','swinging_strike'] <- TRUE

swinging_strike <- na.omit(swinging_strike)
swinging_strike <- filter(swinging_strike,description %in% hit)
swinging_strike <- swinging_strike[-3]

swinging_strike_mean <- swinging_strike %>%
  group_by(release_speed,release_spin_rate) %>%
  summarise(swinging_strike.sum = sum(swinging_strike), swinging_strike.mean = mean(swinging_strike))

## # A tibble: 47 x 4
## # Groups:   release_speed [8]
##    release_speed release_spin_rate swinging_strike.sum swinging_strike.mean
##    <ord>         <ord>                           <int>                <dbl>
##  1 <70           <1700                              12                0.104
##  2 <70           1700-1900                           4                0.125
##  3 <70           1900-2100                          19                0.413
##  4 <70           2100-2300                          31                0.279
##  5 <70           2300-2500                          42                0.264
##  6 <70           >2500                              19                0.365
##  7 70-75         <1700                              46                0.246
##  8 70-75         1700-1900                           8                0.129
##  9 70-75         1900-2100                          26                0.188
## 10 70-75         2100-2300                         112                0.255
## # ... with 37 more rows
…
